process_class                   =       pp-emepmupvm+X
E                               =       6500.
coll_choice                     =       1
N_f                             =       5
N_f_active                      =       5
ckm_choice                      =       0

# switch for jet algorithms and corresponding parameters

jet_algorithm                   =       3
jet_R_definition                =       0
jet_R                           =       0.4
                               
photon_recombination            =       1
photon_R_definition             =       0
photon_R                        =       0.1
photon_E_threshold_ratio        =       1.
                               
# defintion of observed particles and cuts in terms of 'number of particles according to definition'

define_pT jet                   =       25.
define_eta jet                  =       4.5
define_y jet                    =       1.e99
n_observed_min jet              =       0
n_observed_max jet              =       99

define_pT lep                   =       15.
define_eta lep                  =       2.5
define_y lep                    =       1.e99
n_observed_min lep              =       3
n_observed_max lep              =       99

define_pT e                     =       0.
define_eta e                    =       1.e99
define_y e                      =       1.e99
n_observed_min e                =       0
n_observed_max e                =       99

define_pT mu                    =       20.
define_eta mu                   =       2.5
define_y mu                     =       1.e99
n_observed_min mu               =       1
n_observed_max mu               =       99

define_pT missing               =       0.

# ..._qTcut only used if QT subtraction is used

switch_qTcut                    =       1
n_qTcut                         =       86
min_qTcut                       =       0.15
step_qTcut                      =       0.01

# the following cuts cut_... are only used if defined in 'user/specify.cuts.cxx'

user_particle Zrec              =       Zrec
user_particle Wrec              =       Wrec
user_particle lepZ              =       lepZ
user_particle lepW              =       lepW
user_particle lpZ               =       lpZ

user_switch M_Zrec              =       0
user_cut min_M_Zrec             =       66.
user_cut max_M_Zrec             =       116.

user_switch delta_M_Zrec_MZ     =       1
user_cut max_delta_M_Zrec_MZ    =       10.

user_switch delta_M_lepleplep_MZ =       0
user_cut min_delta_M_lepleplep_MZ =       15.

user_switch R_leplep            =       0
user_cut min_R_leplep           =       0.2

user_switch R_lepZlepZ          =       1
user_cut min_R_lepZlepZ         =       0.2

user_switch R_lepZlepW          =       1
user_cut min_R_lepZlepW         =       0.3

user_switch electron_cuts       =       0
user_cut min_pT_e_1st           =       20.
user_cut min_pT_e_2nd           =       10.

user_switch lepton_cuts         =       0
user_cut min_pT_lep_1st         =       25.
user_cut min_pT_lep_2nd         =       0.

user_switch leading_lepton_cuts =       0
user_cut min_pT_1st_if_e        =       25.
user_cut min_pT_1st_if_mu       =       20.

user_switch MT_Wrec             =       1
user_cut min_MT_Wrec            =       30.

# factorization and renormalization scales in test integration

scale_ren                       =       85.7863
scale_fact                      =       85.7863
dynamic_scale                   =       0

# factorization and renormalization scales in CV integration (scale variations, cut_pT variation in QT subtraction, results also for distributions)

switch_CV                       =       5                       % default: (5) 7-point variation;  for 9-point variation (6)
dynamic_scale_CV                =       0                       % same as dynamic_scale (set by MATRIX to the same anyway)
prefactor_CV                    =       1                       % change central value by a factor (useful for dynamical scale)
n_scales_CV                     =       7                       % default: 7-point variation needs 7 scales
variation_factor_CV             =       2                       % determines the size of the variation; usually (default) central scale are varied by a factor of 2

# switch for distributions, if defined in 'file_distribution.dat' and 'file_dddistribution.dat'
switch_distribution             =       0
switch_output_distribution      =       0


type_perturbative_order         =       LO
LHAPDFname                      =       NNPDF31_nlo_as_0118_luxqed
LHAPDFsubset                    =       0

type_perturbative_order         =       NLO
LHAPDFname                      =       NNPDF31_nlo_as_0118_luxqed
LHAPDFsubset                    =       0

type_perturbative_order         =       NNLO
LHAPDFname                      =       NNPDF31_nnlo_as_0118_luxqed
LHAPDFsubset                    =       0

type_perturbative_order         =       NNNLO
LHAPDFname                      =       NNPDF31_nnlo_as_0118_luxqed
LHAPDFsubset                    =       0
