# folder                 subprocess            runtime(s)        n_event         deviation           norm       norm_err
LO/02/born               dd~_aa                         2          32891     0.00024305933      5591.4971      1.3590655
LO/02/born               uu~_aa                        45         495903     0.00097001142      5591.4971      5.4238161
NLO/02/born              dd~_aa                         3          40150     5.4327383e-05      25755.793      1.3992448
NLO/02/born              uu~_aa                        50         608618      0.0002108896      25755.793      5.4316289
NLO.CS/12/VA.QCD         dd~_aa                         0            490     2.5865523e-05      25755.793     0.66618706
NLO.CS/12/VA.QCD         uu~_aa                        11           7673      9.906625e-05      25755.793      2.5515298
NLO.CS/12/CA.QCD         dd~_aa                         2          16960     4.5418517e-05      25755.793      1.1697899
NLO.CS/12/CA.QCD         uu~_aa                        35         239724     0.00017581328      25755.793      4.5282105
NLO.CS/12/RA.QCD         gd_aad                        26         120843     0.00015334412      25755.793      3.9494994
NLO.CS/12/RA.QCD         gu_aau                       403        1819443     0.00059536779      25755.793       15.33417
NLO.CS/12/RA.QCD         gd~_aad~                      21          96617     0.00013636903      25755.793      3.5122925
NLO.CS/12/RA.QCD         gu~_aau~                     243        1091191     0.00046306744      25755.793      11.926669
NLO.CS/12/RA.QCD         dd~_aag                       19          65346     0.00012995011      25755.793      3.3469681
NLO.CS/12/RA.QCD         uu~_aag                      319         961759     0.00053030707      25755.793      13.658479
NNLO/02/born             dd~_aa                        55         451890     1.0668955e-05      40858.562     0.43591818
NNLO/02/born             uu~_aa                       868        6498359     4.2228422e-05      40858.562      1.7253926
NNLO.CS/12/VA.QCD        dd~_aa                         9           7227     4.4263198e-06      40858.562     0.18085306
NNLO.CS/12/VA.QCD        uu~_aa                       146         102643     1.7363483e-05      40858.562     0.70944697
NNLO.CS/12/CA.QCD        dd~_aa                        30         218404     7.9299775e-06      40858.562     0.32400748
NNLO.CS/12/CA.QCD        uu~_aa                       476        2926784     3.1292354e-05      40858.562      1.2785606
NNLO.CS/12/RA.QCD        gd_aad                       348        1533869     2.6765373e-05      40858.562      1.0935947
NNLO.CS/12/RA.QCD        gu_aau                      5916       20702700     0.00011022657      40858.562      4.5036993
NNLO.CS/12/RA.QCD        gd~_aad~                     294        1320312     2.4580745e-05      40858.562      1.0043339
NNLO.CS/12/RA.QCD        gu~_aau~                    3339       13548879     8.2816526e-05      40858.562      3.3837641
NNLO.CS/12/RA.QCD        dd~_aag                      257         863676     2.2978992e-05      40858.562     0.93888859
NNLO.CS/12/RA.QCD        uu~_aag                     4797       12129220     9.9260756e-05      40858.562      4.0556518
NNLO/22/loop             gg_aa                       2225         529127     6.7603586e-05      40858.562      2.7621853
NNLO.QT-CS/22/VT2.QCD    dd~_aa                        25          19458     7.2868186e-06      40858.562     0.29772893
NNLO.QT-CS/22/VT2.QCD    uu~_aa                       358         282287     2.7124444e-05      40858.562      1.1082658
NNLO.QT-CS/22/CT2.QCD    dd~_aa                      1439        1272335     5.4371155e-05      40858.562      2.2215272
NNLO.QT-CS/22/CT2.QCD    uu~_aa                     20092       17171203     0.00020313208      40858.562      8.2996847
NNLO.QT-CS/22/RVA.QCD    gd_aad                      3418         213517     8.3789054e-05      40858.562      3.4235003
NNLO.QT-CS/22/RVA.QCD    gu_aau                     55217        3412613     0.00033674606      40858.562       13.75896
NNLO.QT-CS/22/RVA.QCD    gd~_aad~                    2338         148636     6.9299612e-05      40858.562      2.8314825
NNLO.QT-CS/22/RVA.QCD    gu~_aau~                   33540        2044622      0.0002624511      40858.562      10.723375
NNLO.QT-CS/22/RVA.QCD    dd~_aag                     3797         195613     8.8312297e-05      40858.562      3.6083135
NNLO.QT-CS/22/RVA.QCD    uu~_aag                    63565        3395237     0.00036130571      40858.562      14.762432
NNLO.QT-CS/22/RCA.QCD    gd_aad                       340        1373199     2.6447757e-05      40858.562      1.0806173
NNLO.QT-CS/22/RCA.QCD    gu_aau                      5233       20746532     0.00010367066      40858.562      4.2358341
NNLO.QT-CS/22/RCA.QCD    gd~_aad~                     327        1590213     2.5927598e-05      40858.562      1.0593644
NNLO.QT-CS/22/RCA.QCD    gu~_aau~                    2636       13039590     7.3580815e-05      40858.562      3.0064063
NNLO.QT-CS/22/RCA.QCD    dd~_aag                      323        1614192     2.5785633e-05      40858.562      1.0535639
NNLO.QT-CS/22/RCA.QCD    uu~_aag                     5007       24728510     0.00010141243      40858.562      4.1435662
NNLO.QT-CS/22/RRA.QCD    gg_aadd~                    1566        1542310     5.6727779e-05      40858.562      2.3178155
NNLO.QT-CS/22/RRA.QCD    gg_aauu~                   15840       16941225     0.00018036207      40858.562      7.3693349
NNLO.QT-CS/22/RRA.QCD    gd_aagd                     8094        6272810     0.00012893228      40858.562      5.2679875
NNLO.QT-CS/22/RRA.QCD    gu_aagu                    99040       90110909     0.00045099233      40858.562      18.426898
NNLO.QT-CS/22/RRA.QCD    gd~_aagd~                   5582        3796679     0.00010707139      40858.562      4.3747831
NNLO.QT-CS/22/RRA.QCD    gu~_aagu~                  60440       58653995     0.00035231128      40858.562      14.394932
NNLO.QT-CS/22/RRA.QCD    dd_aadd                      138         116193     1.6837303e-05      40858.562     0.68794799
NNLO.QT-CS/22/RRA.QCD    du_aadu                     1822        2995089     6.1175015e-05      40858.562      2.4995231
NNLO.QT-CS/22/RRA.QCD    ds_aads                      153         206356     1.7738488e-05      40858.562     0.72476912
NNLO.QT-CS/22/RRA.QCD    dc_aadc                     1277        2033541     5.1224279e-05      40858.562      2.0929504
NNLO.QT-CS/22/RRA.QCD    dd~_aagg                    3412        2618517     8.3714764e-05      40858.562      3.4204649
NNLO.QT-CS/22/RRA.QCD    dd~_aadd~                    241         267340     2.2248042e-05      40858.562     0.90902301
NNLO.QT-CS/22/RRA.QCD    dd~_aauu~                     62         142534     1.1298922e-05      40858.562     0.46165772
NNLO.QT-CS/22/RRA.QCD    dd~_aass~                     83         170111     1.3117662e-05      40858.562     0.53596879
NNLO.QT-CS/22/RRA.QCD    dd~_aacc~                     67         146668      1.180774e-05      40858.562     0.48244727
NNLO.QT-CS/22/RRA.QCD    du~_aadu~                   1982        2546011      6.381435e-05      40858.562      2.6073626
NNLO.QT-CS/22/RRA.QCD    ds~_aads~                    369         392806     2.7535293e-05      40858.562      1.1250525
NNLO.QT-CS/22/RRA.QCD    dc~_aadc~                    779         897300      4.002286e-05      40858.562      1.6352765
NNLO.QT-CS/22/RRA.QCD    uu_aauu                     3850        3653337     8.8927501e-05      40858.562      3.6334498
NNLO.QT-CS/22/RRA.QCD    uc_aauc                     1880        2723220      6.214131e-05      40858.562      2.5390046
NNLO.QT-CS/22/RRA.QCD    ud~_aaud~                   1172        1819383     4.9069185e-05      40858.562      2.0048964
NNLO.QT-CS/22/RRA.QCD    uu~_aagg                   49804       43285987     0.00031981456      40858.562      13.067163
NNLO.QT-CS/22/RRA.QCD    uu~_aadd~                    615        1257701     3.5541794e-05      40858.562      1.4521866
NNLO.QT-CS/22/RRA.QCD    uu~_aauu~                   5079        6169495     0.00010213844      40858.562      4.1732297
NNLO.QT-CS/22/RRA.QCD    uu~_aass~                   1272        2582482     5.1117197e-05      40858.562      2.0885752
NNLO.QT-CS/22/RRA.QCD    uu~_aacc~                    652        1388690     3.6611834e-05      40858.562      1.4959069
NNLO.QT-CS/22/RRA.QCD    us~_aaus~                   1229        1987684     5.0252741e-05      40858.562      2.0532547
NNLO.QT-CS/22/RRA.QCD    uc~_aauc~                   2062        2563637     6.5079028e-05      40858.562      2.6590355
NNLO.QT-CS/22/RRA.QCD    d~d~_aad~d~                   40          33538     9.1120864e-06      40858.562     0.37230675
NNLO.QT-CS/22/RRA.QCD    d~u~_aad~u~                  433         626953      2.984109e-05      40858.562       1.219264
NNLO.QT-CS/22/RRA.QCD    d~s~_aad~s~                   54          82656     1.0596026e-05      40858.562     0.43293837
NNLO.QT-CS/22/RRA.QCD    d~c~_aad~c~                  463         779547     3.0859584e-05      40858.562      1.2608782
NNLO.QT-CS/22/RRA.QCD    u~u~_aau~u~                  509         544384     3.2347197e-05      40858.562        1.32166
NNLO.QT-CS/22/RRA.QCD    u~c~_aau~c~                  429         730540     2.9687262e-05      40858.562      1.2129788
